…
Here we drop some non-preditive variables:
url,value,timedelta,data_channel_is_lifestyle,
data_channel_is_entertainment,data_channel_is_bus,
data_channel_is_socmed ,data_channel_is_tech,data_channel_is_world
columns,is_weekend. They won’t contribute anything.

``` r
newsDataSubset<-newsDataSubset%>%select(-c(1,2,4,16:21,34))
newsDataSubset
```

    ## # A tibble: 6,258 × 46
    ##    publishing_day n_tokens_title n_tokens_content n_unique_tokens n_non_stop_words n_non_stop_unique_tokens num_hrefs
    ##    <fct>                   <dbl>            <dbl>           <dbl>            <dbl>                    <dbl>     <dbl>
    ##  1 monday                      9              255           0.605             1.00                    0.792         3
    ##  2 monday                      9              211           0.575             1.00                    0.664         3
    ##  3 monday                      8              397           0.625             1.00                    0.806        11
    ##  4 monday                     13              244           0.560             1.00                    0.680         3
    ##  5 monday                     11              723           0.491             1.00                    0.642        18
    ##  6 monday                      8              708           0.482             1.00                    0.688         8
    ##  7 monday                     10              142           0.655             1.00                    0.792         2
    ##  8 monday                     12              444           0.601             1.00                    0.755         9
    ##  9 monday                      6              109           0.667             1.00                    0.737         3
    ## 10 tuesday                    13              306           0.535             1.00                    0.705         3
    ## # … with 6,248 more rows, and 39 more variables: num_self_hrefs <dbl>, num_imgs <dbl>, num_videos <dbl>,
    ## #   average_token_length <dbl>, num_keywords <dbl>, kw_min_min <dbl>, kw_max_min <dbl>, kw_avg_min <dbl>,
    ## #   kw_min_max <dbl>, kw_max_max <dbl>, kw_avg_max <dbl>, kw_min_avg <dbl>, kw_max_avg <dbl>, kw_avg_avg <dbl>,
    ## #   self_reference_min_shares <dbl>, self_reference_max_shares <dbl>, self_reference_avg_sharess <dbl>, LDA_00 <dbl>,
    ## #   LDA_01 <dbl>, LDA_02 <dbl>, LDA_03 <dbl>, LDA_04 <dbl>, global_subjectivity <dbl>, global_sentiment_polarity <dbl>,
    ## #   global_rate_positive_words <dbl>, global_rate_negative_words <dbl>, rate_positive_words <dbl>,
    ## #   rate_negative_words <dbl>, avg_positive_polarity <dbl>, min_positive_polarity <dbl>, max_positive_polarity <dbl>, …
…
Looking at the different columns in the dataset, there are two that
stand out. Generally speaking, people probably aren’t going to look at
articles that don’t have images or videos. Here are the summary stats
for the articles grouped on the number of images in the article.

``` r
newsDataSubsetTrain %>% group_by(num_imgs) %>%
summarise(avg = mean(shares), med = median(shares), var = var(shares), sd = sd(shares))
```

    ## # A tibble: 38 × 5
    ##    num_imgs   avg   med         var     sd
    ##       <dbl> <dbl> <dbl>       <dbl>  <dbl>
    ##  1        0 6506.  1400 1166593178. 34155.
    ##  2        1 2312.  1300   23446555.  4842.
    ##  3        2 2232.  1500    4154063.  2038.
    ##  4        3 3344.  2100   26642338.  5162.
    ##  5        4 3220.  2600    6519796.  2553.
    ##  6        5 4729.  2350   24828352.  4983.
    ##  7        6 3985.  2900   20522785.  4530.
    ##  8        7 2778.  1550    7167663.  2677.
    ##  9        8 4259.  3350   13151097.  3626.
    ## 10        9 3152.  1800    4461199.  2112.
    ## # … with 28 more rows

As we can see from the above table, the largest avg of shares is with 28
images, and the least avg of shares is with 23 images. Therefore, the
number of images variable affects shares, and we will keep this
variable.

Here are the summary stats for articles with videos.

``` r
newsDataSubsetTrain %>% group_by(num_videos) %>%
summarise(avg = mean(shares), med = median(shares), var = var(shares), sd = sd(shares))
```

    ## # A tibble: 26 × 5
    ##    num_videos    avg   med         var     sd
    ##         <dbl>  <dbl> <dbl>       <dbl>  <dbl>
    ##  1          0  2332.  1300   41452122.  6438.
    ##  2          1  4401.  1600  246263450. 15693.
    ##  3          2 14664.  2000 4302540406. 65594.
    ##  4          3  3404.  2200   10344212.  3216.
    ##  5          4  2572.  1450   10550420.  3248.
    ##  6          5  2416.  2100    2427357.  1558.
    ##  7          6  1464.  1400     819416.   905.
    ##  8          7  2131.  1600    1999643.  1414.
    ##  9          8  6051   6051   53024402   7282.
    ## 10          9   776    776         NA     NA 
    ## # … with 16 more rows
…
