…
Here we drop some non-preditive variables:
url,value,timedelta,data_channel_is_lifestyle,
data_channel_is_entertainment,data_channel_is_bus,
data_channel_is_socmed ,data_channel_is_tech,data_channel_is_world
columns,is_weekend. They won’t contribute anything.

``` r
newsDataSubset<-newsDataSubset%>%select(-c(1,2,4,16:21,34))
newsDataSubset
```

    ## # A tibble: 7,057 × 46
    ##    publishing_day n_tokens_title n_tokens_content n_unique_tokens n_non_stop_words n_non_stop_unique_tokens num_hrefs
    ##    <fct>                   <dbl>            <dbl>           <dbl>            <dbl>                    <dbl>     <dbl>
    ##  1 monday                     12              219           0.664             1.00                    0.815         4
    ##  2 monday                      9              531           0.504             1.00                    0.666         9
    ##  3 monday                     14              194           0.765             1.00                    0.840         4
    ##  4 monday                     12              161           0.669             1.00                    0.752         5
    ##  5 monday                     11              454           0.566             1.00                    0.755         5
    ##  6 monday                     12              177           0.741             1.00                    0.823         4
    ##  7 monday                      5              356           0.618             1.00                    0.766         3
    ##  8 tuesday                    11              281           0.611             1.00                    0.766         5
    ##  9 tuesday                    10              909           0.450             1.00                    0.670         3
    ## 10 wednesday                  10              413           0.606             1.00                    0.729         6
    ## # … with 7,047 more rows, and 39 more variables: num_self_hrefs <dbl>, num_imgs <dbl>, num_videos <dbl>,
    ## #   average_token_length <dbl>, num_keywords <dbl>, kw_min_min <dbl>, kw_max_min <dbl>, kw_avg_min <dbl>,
    ## #   kw_min_max <dbl>, kw_max_max <dbl>, kw_avg_max <dbl>, kw_min_avg <dbl>, kw_max_avg <dbl>, kw_avg_avg <dbl>,
    ## #   self_reference_min_shares <dbl>, self_reference_max_shares <dbl>, self_reference_avg_sharess <dbl>, LDA_00 <dbl>,
    ## #   LDA_01 <dbl>, LDA_02 <dbl>, LDA_03 <dbl>, LDA_04 <dbl>, global_subjectivity <dbl>, global_sentiment_polarity <dbl>,
    ## #   global_rate_positive_words <dbl>, global_rate_negative_words <dbl>, rate_positive_words <dbl>,
    ## #   rate_negative_words <dbl>, avg_positive_polarity <dbl>, min_positive_polarity <dbl>, max_positive_polarity <dbl>, …
…
Looking at the different columns in the dataset, there are two that
stand out. Generally speaking, people probably aren’t going to look at
articles that don’t have images or videos. Here are the summary stats
for the articles grouped on the number of images in the article.

``` r
newsDataSubset %>% group_by(num_imgs) %>%
summarise(avg = mean(shares), med = median(shares), var = var(shares), sd = sd(shares))
```

    ## # A tibble: 78 × 5
    ##    num_imgs   avg   med       var    sd
    ##       <dbl> <dbl> <dbl>     <dbl> <dbl>
    ##  1        0 3367.  1200 49075176. 7005.
    ##  2        1 2341.  1100 35261039. 5938.
    ##  3        2 2731.  1100 56972156. 7548.
    ##  4        3 2224.  1100 12963292. 3600.
    ##  5        4 2731.  1250 15663430. 3958.
    ##  6        5 2818.  1300 27027912. 5199.
    ##  7        6 2788.  1300 16525852. 4065.
    ##  8        7 2160.  1200  5606771. 2368.
    ##  9        8 4709.  1300 79225048. 8901.
    ## 10        9 3057.  1400 39857237. 6313.
    ## # … with 68 more rows

As we can see from the above table, the largest avg of shares is with 27
images, and the least avg of shares is with 23 images. Therefore, the
number of images variable is affect shares, we will keep this variable.

Here are the summary stats for articles with videos.

``` r
newsDataSubset %>% group_by(num_videos) %>%
summarise(avg = mean(shares), med = median(shares), var = var(shares), sd = sd(shares))
```

    ## # A tibble: 47 × 5
    ##    num_videos   avg   med        var     sd
    ##         <dbl> <dbl> <dbl>      <dbl>  <dbl>
    ##  1          0 2487.  1100  41140541.  6414.
    ##  2          1 3536.  1200  96757122.  9837.
    ##  3          2 3218.  1200  61783101.  7860.
    ##  4          3 3034.  1200  50796030.  7127.
    ##  5          4 3206.  1400  49201446.  7014.
    ##  6          5 2769.  1200  30416918.  5515.
    ##  7          6 6202.  1300 385111519. 19624.
    ##  8          7 3371.  1300  24221202.  4922.
    ##  9          8 3164.  1450  11667335.  3416.
    ## 10          9 1783.  1250   2736089.  1654.
    ## # … with 37 more rows
…
