…
Here we drop some non-preditive variables:
url,value,timedelta,data_channel_is_lifestyle,
data_channel_is_entertainment,data_channel_is_bus,
data_channel_is_socmed ,data_channel_is_tech,data_channel_is_world
columns,is_weekend. They won’t contribute anything.

``` r
newsDataSubset<-newsDataSubset%>%select(-c(1,2,4,16:21,34))
newsDataSubset
```

    ## # A tibble: 2,099 × 46
    ##    publishing_day n_tokens_title n_tokens_content n_unique_tokens n_non_stop_words n_non_stop_unique_tokens num_hrefs
    ##    <fct>                   <dbl>            <dbl>           <dbl>            <dbl>                    <dbl>     <dbl>
    ##  1 monday                      8              960           0.418             1.00                    0.550        21
    ##  2 monday                     10              187           0.667             1.00                    0.800         7
    ##  3 monday                     11              103           0.689             1.00                    0.806         3
    ##  4 monday                     10              243           0.619             1.00                    0.824         1
    ##  5 monday                      8              204           0.586             1.00                    0.698         7
    ##  6 monday                     11              315           0.551             1.00                    0.702         4
    ##  7 monday                     10             1190           0.409             1.00                    0.561        25
    ##  8 monday                      6              374           0.641             1.00                    0.828         7
    ##  9 tuesday                    12              499           0.513             1.00                    0.662        14
    ## 10 wednesday                  11              223           0.662             1.00                    0.826         5
    ## # … with 2,089 more rows, and 39 more variables: num_self_hrefs <dbl>, num_imgs <dbl>, num_videos <dbl>,
    ## #   average_token_length <dbl>, num_keywords <dbl>, kw_min_min <dbl>, kw_max_min <dbl>, kw_avg_min <dbl>,
    ## #   kw_min_max <dbl>, kw_max_max <dbl>, kw_avg_max <dbl>, kw_min_avg <dbl>, kw_max_avg <dbl>, kw_avg_avg <dbl>,
    ## #   self_reference_min_shares <dbl>, self_reference_max_shares <dbl>, self_reference_avg_sharess <dbl>, LDA_00 <dbl>,
    ## #   LDA_01 <dbl>, LDA_02 <dbl>, LDA_03 <dbl>, LDA_04 <dbl>, global_subjectivity <dbl>, global_sentiment_polarity <dbl>,
    ## #   global_rate_positive_words <dbl>, global_rate_negative_words <dbl>, rate_positive_words <dbl>,
    ## #   rate_negative_words <dbl>, avg_positive_polarity <dbl>, min_positive_polarity <dbl>, max_positive_polarity <dbl>, …
…
Looking at the different columns in the dataset, there are two that
stand out. Generally speaking, people probably aren’t going to look at
articles that don’t have images or videos. Here are the summary stats
for the articles grouped on the number of images in the article.

``` r
newsDataSubset %>% group_by(num_imgs) %>%
summarise(avg = mean(shares), med = median(shares), var = var(shares), sd = sd(shares))
```

    ## # A tibble: 46 × 5
    ##    num_imgs   avg   med       var    sd
    ##       <dbl> <dbl> <dbl>     <dbl> <dbl>
    ##  1        0 3412.  1600 28214771. 5312.
    ##  2        1 3505.  1500 93048735. 9646.
    ##  3        2 3684.  1500 78338969. 8851.
    ##  4        3 2765.  1700  8254428. 2873.
    ##  5        4 2878.  1450 21072041. 4590.
    ##  6        5 4399.  1850 71679990. 8466.
    ##  7        6 3166.  1500 22453761. 4739.
    ##  8        7 3307.  2250  7191557. 2682.
    ##  9        8 2809.  1800 11789849. 3434.
    ## 10        9 3825.  2100 34583426. 5881.
    ## # … with 36 more rows
…
