…
Looking at the different columns in the dataset, there are two that
stand out. Generally speaking, people probably aren’t going to look at
articles that don’t have images or videos. Here are the summary stats
for the articles grouped on the number of images in the article.

``` r
newsDataSubset %>% group_by(num_imgs) %>%
summarise(avg = mean(shares), med = median(shares), var = var(shares), sd = sd(shares))
```

    ## # A tibble: 46 × 5
    ##    num_imgs   avg   med       var    sd
    ##       <dbl> <dbl> <dbl>     <dbl> <dbl>
    ##  1        0 3412.  1600 28214771. 5312.
    ##  2        1 3505.  1500 93048735. 9646.
    ##  3        2 3684.  1500 78338969. 8851.
    ##  4        3 2765.  1700  8254428. 2873.
    ##  5        4 2878.  1450 21072041. 4590.
    ##  6        5 4399.  1850 71679990. 8466.
    ##  7        6 3166.  1500 22453761. 4739.
    ##  8        7 3307.  2250  7191557. 2682.
    ##  9        8 2809.  1800 11789849. 3434.
    ## 10        9 3825.  2100 34583426. 5881.
    ## # … with 36 more rows
…
