…
Here we drop some non-preditive variables:
url,value,timedelta,data_channel_is_lifestyle,
data_channel_is_entertainment,data_channel_is_bus,
data_channel_is_socmed ,data_channel_is_tech,data_channel_is_world
columns,is_weekend. They won’t contribute anything.

``` r
newsDataSubset<-newsDataSubset%>%select(-c(1,2,4,16:21,34))
newsDataSubset
```

    ## # A tibble: 2,323 × 46
    ##    publishing_day n_tokens_title n_tokens_content n_unique_tokens n_non_stop_words n_non_stop_unique_tokens num_hrefs
    ##    <fct>                   <dbl>            <dbl>           <dbl>            <dbl>                    <dbl>     <dbl>
    ##  1 monday                      8              257           0.568             1.00                    0.671         9
    ##  2 monday                      8              218           0.663             1.00                    0.688        14
    ##  3 monday                      9             1226           0.410             1.00                    0.617        10
    ##  4 monday                     10             1121           0.451             1.00                    0.629        15
    ##  5 wednesday                   9              168           0.778             1.00                    0.865         6
    ##  6 wednesday                   9              100           0.760             1.00                    0.803         3
    ##  7 wednesday                  10             1596           0.420             1.00                    0.632        19
    ##  8 thursday                    7              518           0.486             1.00                    0.654        11
    ##  9 friday                      8              358           0.503             1.00                    0.687         4
    ## 10 friday                      6              358           0.622             1.00                    0.777        24
    ## # … with 2,313 more rows, and 39 more variables: num_self_hrefs <dbl>, num_imgs <dbl>, num_videos <dbl>,
    ## #   average_token_length <dbl>, num_keywords <dbl>, kw_min_min <dbl>, kw_max_min <dbl>, kw_avg_min <dbl>,
    ## #   kw_min_max <dbl>, kw_max_max <dbl>, kw_avg_max <dbl>, kw_min_avg <dbl>, kw_max_avg <dbl>, kw_avg_avg <dbl>,
    ## #   self_reference_min_shares <dbl>, self_reference_max_shares <dbl>, self_reference_avg_sharess <dbl>, LDA_00 <dbl>,
    ## #   LDA_01 <dbl>, LDA_02 <dbl>, LDA_03 <dbl>, LDA_04 <dbl>, global_subjectivity <dbl>, global_sentiment_polarity <dbl>,
    ## #   global_rate_positive_words <dbl>, global_rate_negative_words <dbl>, rate_positive_words <dbl>,
    ## #   rate_negative_words <dbl>, avg_positive_polarity <dbl>, min_positive_polarity <dbl>, max_positive_polarity <dbl>, …
…
Looking at the different columns in the dataset, there are two that
stand out. Generally speaking, people probably aren’t going to look at
articles that don’t have images or videos. Here are the summary stats
for the articles grouped on the number of images in the article.

``` r
newsDataSubsetTrain %>% group_by(num_imgs) %>%
summarise(avg = mean(shares), med = median(shares), var = var(shares), sd = sd(shares))
```

    ## # A tibble: 45 × 5
    ##    num_imgs   avg   med        var     sd
    ##       <dbl> <dbl> <dbl>      <dbl>  <dbl>
    ##  1        0 3128.  1700  20053725.  4478.
    ##  2        1 3618.  2200  33942444.  5826.
    ##  3        2 4545.  2800  45654978.  6757.
    ##  4        3 3271.  2600   6566865.  2563.
    ##  5        4 4650   2600  32009706.  5658.
    ##  6        5 2680.  1900   4266073.  2065.
    ##  7        6 5358.  2600 148001738. 12166.
    ##  8        7 6969   2700 122498192. 11068.
    ##  9        8 3241.  1900   8063238.  2840.
    ## 10        9 5643.  2450  53674712.  7326.
    ## # … with 35 more rows

As we can see from the above table, the largest avg of shares is with 28
images, and the least avg of shares is with 23 images. Therefore, the
number of images variable affects shares, and we will keep this
variable.

Here are the summary stats for articles with videos.

``` r
newsDataSubsetTrain %>% group_by(num_videos) %>%
summarise(avg = mean(shares), med = median(shares), var = var(shares), sd = sd(shares))
```

    ## # A tibble: 29 × 5
    ##    num_videos   avg   med       var    sd
    ##         <dbl> <dbl> <dbl>     <dbl> <dbl>
    ##  1          0 3619.  2300 20486677. 4526.
    ##  2          1 4106.  2100 89814594. 9477.
    ##  3          2 2483.  1500  8026098. 2833.
    ##  4          3 2269.  1500  3888645. 1972.
    ##  5          4 2362.  2450  1582500  1258.
    ##  6          5 4908.  1600 42285208. 6503.
    ##  7          6 3312.  1450 21360968. 4622.
    ##  8          7 1680   1400   512000   716.
    ##  9          8 2733.  2050  3294667. 1815.
    ## 10          9 2942   2000 11567369. 3401.
    ## # … with 19 more rows
…
