…
Here we drop some non-preditive variables:
url,value,timedelta,data_channel_is_lifestyle,
data_channel_is_entertainment,data_channel_is_bus,
data_channel_is_socmed ,data_channel_is_tech,data_channel_is_world
columns,is_weekend. They won’t contribute anything.

``` r
newsDataSubset<-newsDataSubset%>%select(-c(1,2,4,16:21,34))
newsDataSubset
```

    ## # A tibble: 8,427 × 46
    ##    publishing_day n_tokens_title n_tokens_content n_unique_tokens n_non_stop_words n_non_stop_unique_tokens num_hrefs
    ##    <fct>                   <dbl>            <dbl>           <dbl>            <dbl>                    <dbl>     <dbl>
    ##  1 monday                     10              231           0.636             1.00                    0.797         4
    ##  2 monday                      9             1248           0.490             1.00                    0.732        11
    ##  3 monday                     12              682           0.460             1.00                    0.635        10
    ##  4 monday                      9              391           0.510             1.00                    0.650         9
    ##  5 monday                     11              125           0.675             1.00                    0.797         1
    ##  6 monday                     11              799           0.504             1.00                    0.738         8
    ##  7 monday                     11              317           0.611             1.00                    0.729         7
    ##  8 monday                     11              399           0.598             1.00                    0.806         8
    ##  9 monday                      9              443           0.467             1.00                    0.589         3
    ## 10 tuesday                    12              288           0.589             1.00                    0.726         5
    ## # … with 8,417 more rows, and 39 more variables: num_self_hrefs <dbl>, num_imgs <dbl>, num_videos <dbl>,
    ## #   average_token_length <dbl>, num_keywords <dbl>, kw_min_min <dbl>, kw_max_min <dbl>, kw_avg_min <dbl>,
    ## #   kw_min_max <dbl>, kw_max_max <dbl>, kw_avg_max <dbl>, kw_min_avg <dbl>, kw_max_avg <dbl>, kw_avg_avg <dbl>,
    ## #   self_reference_min_shares <dbl>, self_reference_max_shares <dbl>, self_reference_avg_sharess <dbl>, LDA_00 <dbl>,
    ## #   LDA_01 <dbl>, LDA_02 <dbl>, LDA_03 <dbl>, LDA_04 <dbl>, global_subjectivity <dbl>, global_sentiment_polarity <dbl>,
    ## #   global_rate_positive_words <dbl>, global_rate_negative_words <dbl>, rate_positive_words <dbl>,
    ## #   rate_negative_words <dbl>, avg_positive_polarity <dbl>, min_positive_polarity <dbl>, max_positive_polarity <dbl>, …
…
Looking at the different columns in the dataset, there are two that
stand out. Generally speaking, people probably aren’t going to look at
articles that don’t have images or videos. Here are the summary stats
for the articles grouped on the number of images in the article.

``` r
newsDataSubsetTrain %>% group_by(num_imgs) %>%
summarise(avg = mean(shares), med = median(shares), var = var(shares), sd = sd(shares))
```

    ## # A tibble: 47 × 5
    ##    num_imgs   avg   med        var     sd
    ##       <dbl> <dbl> <dbl>      <dbl>  <dbl>
    ##  1        0 3227.  1200 159596485. 12633.
    ##  2        1 1858.  1100  14046212.  3748.
    ##  3        2 1931.  1150   9308068.  3051.
    ##  4        3 2364.  1200  20725501.  4553.
    ##  5        4 2654.  1200  36013147.  6001.
    ##  6        5 3376.  1300  90403885.  9508.
    ##  7        6 2244.  1200  12064467.  3473.
    ##  8        7 3594.  1400  59477438.  7712.
    ##  9        8 2918.  1500  28104298.  5301.
    ## 10        9 2829.  1400  16511310.  4063.
    ## # … with 37 more rows
…
